2020-01-10 13:39:21    Create single.html
2020-01-10 13:39:21    Create group.html
2020-01-10 13:39:21    Create entrance.html
2020-01-10 13:39:21      Copy /favicon.ico
2020-01-10 13:39:21      Copy /css/entrance.css
2020-01-10 13:39:21      Copy /fonts/fontawesome-webfont.svg
2020-01-10 13:39:21      Copy /fonts/FontAwesome.otf
2020-01-10 13:39:21      Copy /fonts/fontawesome-webfont.woff2
2020-01-10 13:39:21      Copy /fonts/fontawesome-webfont.ttf
2020-01-10 13:39:21      Copy /fonts/fontawesome-webfont.woff
2020-01-10 13:39:21      Copy /fonts/fontawesome-webfont.eot
2020-01-10 15:18:23    Create single.html
2020-01-10 15:18:23    Create group.html
2020-01-10 15:18:23    Create entrance.html
2020-01-10 15:18:23      Copy /favicon.ico
2020-01-10 15:18:23      Copy /css/entrance.css
2020-01-10 15:18:23      Copy /fonts/fontawesome-webfont.svg
2020-01-10 15:18:23      Copy /fonts/FontAwesome.otf
2020-01-10 15:18:23      Copy /fonts/fontawesome-webfont.woff2
2020-01-10 15:18:23      Copy /fonts/fontawesome-webfont.ttf
2020-01-10 15:18:23      Copy /fonts/fontawesome-webfont.woff
2020-01-10 15:18:23      Copy /fonts/fontawesome-webfont.eot
2020-01-10 16:46:36    Create single.html
2020-01-10 16:46:36    Create group.html
2020-01-10 16:46:36    Create entrance.html
2020-01-10 16:46:36      Copy /favicon.ico
2020-01-10 16:46:36      Copy /asap_entrance_20200110.zip
2020-01-10 16:46:36      Copy /css/entrance.css
2020-01-10 16:46:36      Copy /fonts/fontawesome-webfont.svg
2020-01-10 16:46:36      Copy /fonts/FontAwesome.otf
2020-01-10 16:46:36      Copy /fonts/fontawesome-webfont.woff2
2020-01-10 16:46:36      Copy /fonts/fontawesome-webfont.ttf
2020-01-10 16:46:37      Copy /fonts/fontawesome-webfont.woff
2020-01-10 16:46:37      Copy /fonts/fontawesome-webfont.eot
